stat293 final
…
if (has_spatial) {
  model_compare <- tibble(
    imputation = seq_along(fit_m2_list),
    AIC_m1 = sapply(fit_m1$analyses, AIC),
    AIC_m2 = sapply(fit_m2_list, AIC)
  ) %>%
    mutate(delta_AIC = AIC_m1 - AIC_m2)

  print(model_compare)
  cat("\nAverage delta AIC (positive favors spatial random-effect model):\n")
  print(mean(model_compare$delta_AIC, na.rm = TRUE))
}

## # A tibble: 30 × 4
##    imputation AIC_m1 AIC_m2 delta_AIC
##         <int>  <dbl>  <dbl>     <dbl>
##  1          1  -248.  -258.      9.83
##  2          2  -213.  -223.      9.68
##  3          3  -286.  -295.      9.10
##  4          4  -262.  -267.      5.71
##  5          5  -280.  -290.     10.1 
##  6          6  -309.  -313.      4.77
##  7          7  -283.  -295.     12.0 
##  8          8  -292.  -297.      4.85
##  9          9  -248.  -259.     10.4 
## 10         10  -291.  -295.      3.40
## # ℹ 20 more rows
## 
## Average delta AIC (positive favors spatial random-effect model):
## [1] 7.499168
…
